Genus,Species,Order,Family,BSL,Body Mass,Source
Bharatisiren,indica,Sirenia,Dugongidae,35,27542.24033,Sarko
Bharatisiren,kachchhensis,Sirenia,Dugongidae,51.2,119995.6435,Sarko
Callistosiren,boriquensis,Sirenia,Dugongidae,37,34148.56595,Sarko
Crenatosiren,olseni,Sirenia,Dugongidae,34,24620.22004,Sarko
Dioplotherium,allisoni,Sirenia,Dugongidae,41.5,53238.77894,Sarko
Dioplotherium,allisoni,Sirenia,Dugongidae,56.5,175661.038,Sarko
Dioplotherium,manigaulti,Sirenia,Dugongidae,45.9,78623.66427,Sarko
Domningia,sodhae,Sirenia,Dugongidae,51,118192.253,Sarko
Dusisiren,dewana,Sirenia,Dugongidae,51.1,119091.417,Sarko
Dusisiren,jordani,Sirenia,Dugongidae,58.5,200967.5999,Sarko
Dusisiren,jordani,Sirenia,Dugongidae,57,181752.2587,Sarko
Dusisiren,jordani,Sirenia,Dugongidae,63,267700.1323,Sarko
Eosiren,libyca,Sirenia,Dugongidae,30.5,16171.71498,Sarko
Halitherium,schinzii,Sirenia,Dugongidae,30.8,16795.87842,Sarko
Hydrodamalis,cuestae,Sirenia,Dugongidae,77,581878.9088,Sarko
Hydrodamalis,gigas,Sirenia,Dugongidae,66.6,331911.1123,Sarko
Hydrodamalis,gigas,Sirenia,Dugongidae,64.5,293215.2378,Sarko
Hydrodamalis,gigas,Sirenia,Dugongidae,69.5,391416.5719,Sarko
Kutchisiren,cylindrica,Sirenia,Dugongidae,39,41862.86668,Sarko
Metaxytherium,arctodites,Sirenia,Dugongidae,41.5,53238.77894,Sarko
Metaxytherium,crataegense,Sirenia,Dugongidae,37.4,35599.19922,Sarko
Metaxytherium,floridanum,Sirenia,Dugongidae,45.5,76005.68784,Sarko
Metaxytherium,floridanum,Sirenia,Dugongidae,47.9,92729.53915,Sarko
Metaxytherium,floridanum,Sirenia,Dugongidae,45.5,76005.68784,Sarko
Metaxytherium,floridanum,Sirenia,Dugongidae,48.9,100446.77,Sarko
Metaxytherium,serresii,Sirenia,Dugongidae,39,41862.86668,Sarko
Metaxytherium,subapenninum,Sirenia,Dugongidae,59.5,214588.35,Sarko
Metaxytherium,subapenninum,Sirenia,Dugongidae,52,127413.9374,Sarko
Miosiren,kocki,Sirenia,Trichechidae,48.7,170703.8576,Sarko
Nanosiren,garciae,Sirenia,Dugongidae,28,11615.94169,Sarko
Protosiren,fraasi,Sirenia,Protosirenidae,37.7,54172.39971,Sarko
Protosiren,fraasi,Sirenia,Protosirenidae,32,27735.27724,Sarko
Protosiren,smithae,Sirenia,Protosirenidae,35,39992.07085,Sarko
Pezosiren,portelli,Sirenia,Prorastomidae,,12500,Mirceta
Prorastomus,sirenoides,Sirenia,Prorastomidae,27,13857.65078,Savage
Saghatherium,bowni,Hyracoidea,Pliohyracidae,,9200,Schwartz
Saghatherium,humarum,Hyracoidea,Pliohyracidae,,13400,Schwartz
Titanohyrax,angustidens,Hyracoidea,Pliohyracidae,,262700,Schwartz
Titanohyrax,mongereaui,Hyracoidea,Pliohyracidae,,675000,Schwartz
Titanohyrax,ultimus,Hyracoidea,Pliohyracidae,,1001700,Schwartz
Thyrohyrax,meyeri,Hyracoidea,Pliohyracidae,,6500,Schwartz
Thyrohyrax,litholagus,Hyracoidea,Pliohyracidae,,22200,Schwartz
Thyrohyrax,domorictus,Hyracoidea,Pliohyracidae,,10900,Schwartz
Pachyhyrax,crassidentatus,Hyracoidea,Pliohyracidae,,134200,Schwartz
Selenohyrax,chatrathi,Hyracoidea,Pliohyracidae,,45900,Schwartz
Microhyrax,lavocati,Hyracoidea,Pliohyracidae,,3400,Schwartz
Megalohyrax,eocaenus,Hyracoidea,Pliohyracidae,,155400,Schwartz
Megalohyrax,championi,Hyracoidea,Pliohyracidae,,82300,Schwartz
Sogdohyrax,soricus,Hyracoidea,Pliohyracidae,,1163000,Schwartz
Bunohyrax,major,Hyracoidea,Pliohyracidae,,232300,Schwartz
Bunohyrax,fajumensis,Hyracoidea,Pliohyracidae,,82300,Schwartz
Parapliohyrax,ngororaensis,Hyracoidea,Pliohyracidae,,97700,Schwartz
Kvabebihyrax,kachethicus,Hyracoidea,Pliohyracidae,,387000,Schwartz
Postschizotherium,chardini,Hyracoidea,Pliohyracidae,,1248000,Schwartz
Mammuthus,primigenius,Proboscidea,Mammutidae,,3897,Christiansen
Mammuthus,primigenius,Proboscidea,Mammutidae,,6170,Christiansen
Mammuthus,primigenius,Proboscidea,Mammutidae,,3344,Christiansen
Mammuthus,primigenius,Proboscidea,Mammutidae,,5050,Christiansen
Mammuthus,primigenius,Proboscidea,Mammutidae,,5240,Christiansen
Mammuthus,meridionalis,Proboscidea,Mammutidae,,6724,Christiansen
Mammuthus,meridionalis,Proboscidea,Mammutidae,,8009,Christiansen
Mammuthus,imperator,Proboscidea,Mammutidae,,8640,Christiansen
Mammuthus,imperator,Proboscidea,Mammutidae,,5215,Christiansen
Mammuthus,imperator,Proboscidea,Mammutidae,,7652,Christiansen
Mammuthus,imperator,Proboscidea,Mammutidae,,5724,Christiansen
Mammut,americanum,Proboscidea,Mammutidae,,6915,Christiansen
Mammut,americanum,Proboscidea,Mammutidae,,7156,Christiansen
Mammut,americanum,Proboscidea,Mammutidae,,7176,Christiansen
Mammut,americanum,Proboscidea,Mammutidae,,5343,Christiansen
Archaeobelodon,filholi,Proboscidea,Gomphotheriidae,,2957,Christiansen
Gomphotherium,angustidens,Proboscidea,Gomphotheriidae,,3969,Christiansen
Gomphotherium,productum,Proboscidea,Gomphotheriidae,,2960,Christiansen
Gomphotherium,productum,Proboscidea,Gomphotheriidae,,4694,Christiansen
Cuvieronius,hyodon,Proboscidea,Gomphotheriidae,,3083,Christiansen
Eubelodon,morrilli,Proboscidea,Gomphotheriidae,,5510,Christiansen
Stegomastodon,platensis,Proboscidea,Gomphotheriidae,,6035,Christiansen
