"canonicalName","rank","class","subclass","order","family","genus","species","MaxBodyMass(g)","MaxCalcMass(g)"
"Aeolodon heberti","species","Reptilia","","","","Aeolodon","heberti",36106230.362791,29224701.349846
"Machinosaurus","genus","Reptilia","","","","Machinosaurus","",262043425.75284,117199282.83952
"Cricosaurus seuvicus","species","Reptilia","","","Metriorhynchidae","Cricosaurus","seuvicus",7456125.5086633,7079175.7380521
"Platysuchus multiscrobiculatus","species","Reptilia","","","Teleosauridae","Platysuchus","multiscrobiculatus",7456125.5086633,7079175.7380521
"Iguanodon","genus","Reptilia","","","Iguanodontidae","Iguanodon","",154136202.56672,71384635.482298
"Crocodylus porosus","species","Reptilia","","Crocodilia","Crocodylidae","Crocodylus","porosus",68424106.156824,51914936.786663
"Nothosaurus zhangi","species","Reptilia","","Eosauropterygia","Nothosauridae","Nothosaurus","zhangi",15898138.53,74361080.464155
"Raniceps raninus","species","Reptilia","","Ganocephala","Gadidae","Raniceps","raninus",4653.954508664,9321.3337624679
"Placochelys placodonta","species","Reptilia","","Placodontia","","Placochelys","placodonta",181077.14749476,250421.16048061
"Helveticosaurus zollingeri","species","Reptilia","","Placodontia","Helveticosauridae","Helveticosaurus","zollingeri",2131784.9993738,2297315.3854685
"Paraplacodus broilli","species","Reptilia","","Placodontia","Paraplacodontidae","Paraplacodus","broilli",876864.69243124,1033804.4848059
"Peloneustes philarcus","species","Reptilia","","Plesiosauria","Pliosauridae","Peloneustes","philarcus",7456125.5086633,7079175.7380521
"Polycotylus latipinnus","species","Reptilia","","Plesiosauria","Polycotylidae","Polycotylus","latipinnus",36106230.362791,29224701.349846
"Pleurosaurus goldfussi","species","Reptilia","","Rhynchocephalia","","Pleurosaurus","goldfussi",51771.868151925,81266.012613111
"Astrotia stokesii","species","Reptilia","","Squamata","Elapidae","Astrotia","stokesii",1070250.1114621,1236617.6542356
"Enhydrina schistosa","species","Reptilia","","Squamata","Elapidae","Enhydrina","schistosa",708608.16050782,853634.48041585
"Pelamis platura","species","Reptilia","","Squamata","Elapidae","Pelamis","platura",168937.19030421,235278.06703278
"Pseudolaticauda semifasciata","species","Reptilia","","Squamata","Elapidae","Pseudolaticauda","semifasciata",440224.75769714,556484.70602928
"Acalyptophis peronii","species","Reptilia","","Squamata","Hydrophiidae","Acalyptophis","peronii",250704.87287715,335487.49690518
"Aipysurus duboisii","species","Reptilia","","Squamata","Hydrophiidae","Aipysurus","duboisii",841261.38063613,995996.53011146
"Aipysurus laevis","species","Reptilia","","Squamata","Hydrophiidae","Aipysurus","laevis",2131784.9993738,2297315.3854685
"Emydocephalus annulatus","species","Reptilia","","Squamata","Hydrophiidae","Emydocephalus","annulatus",187362.46642393,258220.6021968
"Hydrophis bituberculatus","species","Reptilia","","Squamata","Hydrophiidae","Hydrophis","bituberculatus",355752.55618612,459501.32725517
"Hydrophis caerulescens","species","Reptilia","","Squamata","Hydrophiidae","Hydrophis","caerulescens",135837.58488378,193400.01995949
"Hydrophis caerulescens","species","Reptilia","","Squamata","Hydrophiidae","Hydrophis","caerulescens",98935.083768194,145449.93905797
"Hydrophis cyanocinctus","species","Reptilia","","Squamata","Hydrophiidae","Hydrophis","cyanocinctus",1819507.6883284,1992461.1334455
"Hydrophis lapemoides","species","Reptilia","","Squamata","Hydrophiidae","Hydrophis","lapemoides",563663.41460416,694927.60177947
"Hydrophis melanocephalus","species","Reptilia","","Squamata","Hydrophiidae","Hydrophis","melanocephalus",876864.69243124,1033804.4848059
"Laticauda colubrina","species","Reptilia","","Squamata","Hydrophiidae","Laticauda","colubrina",876864.69243124,1033804.4848059
"Clidastes propython","species","Reptilia","","Squamata","Mosasauridae","Clidastes","propython",18126920.435975,15731310.492927
"Mosasaurus maxima","species","Reptilia","","Squamata","Mosasauridae","Mosasaurus","maxima",1885576995.5175,1022900356.1245
"Acrochordus","genus","Reptilia","","Squamata","Acrochordidae","Acrochordus","",3889689.6220942,2294292.8191889
"Toxochelys latiremus","species","Reptilia","","Testudines","","Toxochelys","latiremus",2131784.9993738,2297315.3854685
"Caretta caretta","species","Reptilia","","Testudines","Cheloniidae","Caretta","caretta",499368.21453751,623248.8964012
"Chelonia agassizii","species","Reptilia","","Testudines","Cheloniidae","Chelonia","agassizii",407118.38622176,518721.49660708
"Chelonia agassizii","species","Reptilia","","Testudines","Cheloniidae","Chelonia","agassizii",407118.38622176,518721.49660708
"Chelonia mydas","species","Reptilia","","Testudines","Cheloniidae","Chelonia","mydas",291470.986474,384140.18372097
"Eretmochelys imbricata","species","Reptilia","","Testudines","Cheloniidae","Eretmochelys","imbricata",181077.14749476,250421.16048061
"Lepidochelys kempii","species","Reptilia","","Testudines","Cheloniidae","Lepidochelys","kempii",102275.33471931,149856.4159432
"Lepidochelys kempii","species","Reptilia","","Testudines","Cheloniidae","Lepidochelys","kempii",68517.993502568,104546.01679386
"Lepidochelys olivacea","species","Reptilia","","Testudines","Cheloniidae","Lepidochelys","olivacea",107427.42062105,156624.75253444
"Natator depressus","species","Reptilia","","Testudines","Cheloniidae","Natator","depressus",221012.24848291,299549.12422596
"Puppigerus camperi","species","Reptilia","","Testudines","Cheloniidae","Puppigerus","camperi",181077.14749476,250421.16048061
"Dermochelys coriacea","species","Reptilia","","Testudines","Dermochelyidae","Dermochelys","coriacea",4624196.2815588,4607805.1431914
"Psephophorus","genus","Reptilia","","Testudines","Dermochelyidae","Psephophorus","",7456125.5086633,4213784.1725472
"Californosaurus perinni","species","Reptilia","Ichthyopterygia","Ichthyosauria","","Californosaurus","perinni",7456125.5086633,7079175.7380521
"Himalayosaurus tibetensis","species","Reptilia","Ichthyopterygia","Ichthyosauria","","Himalayosaurus","tibetensis",1073822706.9149,616675132.92193
"Ichthyosaurus communis","species","Reptilia","Ichthyopterygia","Ichthyosauria","","Ichthyosaurus","communis",2131784.9993738,2297315.3854685
"Stenopterygius quadriscissus","species","Reptilia","Ichthyopterygia","Ichthyosauria","","Stenopterygius","quadriscissus",18126920.435975,15731310.492927
"Temnodontosaurus platyodon","species","Reptilia","Ichthyopterygia","Ichthyosauria","","Temnodontosaurus","platyodon",539106369.59345,331948917.90787
"Grippia","genus","Reptilia","Ichthyopterygia","Ichthyosauria","","Grippia","",876864.69243124,570416.13158296
"Cymbospondylus piscosus","species","Reptilia","Ichthyopterygia","Ichthyosauria","Cymbospondylidae","Cymbospondylus","piscosus",307017248.56004,200121782.97571
"Chaohusaurus geishanensis","species","Reptilia","Ichthyopterygia","Ichthyosauria","Grippiidae","Chaohusaurus","geishanensis",1539728.9343788,1714807.2286627
"Eurhinosaurus longirostris","species","Reptilia","Ichthyopterygia","Ichthyosauria","Leptonectidae","Eurhinosaurus","longirostris",63400668.405061,48476022.175154
"Leptonectes tenuirostris","species","Reptilia","Ichthyopterygia","Ichthyosauria","Leptonectidae","Leptonectes","tenuirostris",1384228.8117051,1558318.3701346
"Mixosaurus cornalianus","species","Reptilia","Ichthyopterygia","Ichthyosauria","Mixosauridae","Mixosaurus","cornalianus",2131784.9993738,2297315.3854685
"Caypullisaurus bonapartei","species","Reptilia","Ichthyopterygia","Ichthyosauria","Ophthalmosauridae","Caypullisaurus","bonapartei",34287278.773837,27897925.155914
"Ophthalmosaurus icenicus","species","Reptilia","Ichthyopterygia","Ichthyosauria","Ophthalmosauridae","Ophthalmosaurus","icenicus",63400668.405061,48476022.175154
"Platypterygius longmani","species","Reptilia","Ichthyopterygia","Ichthyosauria","Ophthalmosauridae","Platypterygius","longmani",102052940.52177,74361080.464155
"Brachypterygius","genus","Reptilia","Ichthyopterygia","Ichthyosauria","Ophthalmosauridae","Brachypterygius","",19799886.729957,10494046.470128
"Shonisaurus popularis","species","Reptilia","Ichthyopterygia","Ichthyosauria","Shastasauridae","Shonisaurus","popularis",1073822706.9149,616675132.92193
"Utatsusaurus hataii","species","Reptilia","Ichthyopterygia","Ichthyosauria","Utatsusauridae","Utatsusaurus","hataii",7456125.5086633,7079175.7380521
"Pelagosaurus typus","species","Reptilia","Tetrapodomorpha","","","Pelagosaurus","typus",7456125.5086633,7079175.7380521
"Terminonaris robusta","species","Reptilia","Tetrapodomorpha","","","Terminonaris","robusta",131557359.5378,93428294.718773
"Dyrosaurus phosphaticus","species","Reptilia","Tetrapodomorpha","","Dyrosauridae","Dyrosaurus","phosphaticus",63400668.405061,48476022.175154
"Dakosaurus maximus","species","Reptilia","Tetrapodomorpha","","Metriorhynchidae","Dakosaurus","maximus",36106230.362791,29224701.349846
"Metriorhynchus geoffroyii","species","Reptilia","Tetrapodomorpha","","Metriorhynchidae","Metriorhynchus","geoffroyii",7456125.5086633,7079175.7380521
"Sarcosuchus imperator","species","Reptilia","Tetrapodomorpha","","Pholidosauridae","Sarcosuchus","imperator",539106369.59345,331948917.90787
"Teleosaurus cadomensis","species","Reptilia","Tetrapodomorpha","","Teleosauridae","Teleosaurus","cadomensis",7456125.5086633,7079175.7380521
"Crocodylus thorbjarnarsoni","species","Reptilia","Tetrapodomorpha","Crocodilia","Crocodylidae","Crocodylus","thorbjarnarsoni",131557359.5378,93428294.718773
"Archaeophis proavus","species","Reptilia","Tetrapodomorpha","Ophidia","Palaeophiidae","Archaeophis","proavus",217476.92652694,295238.73583108
"Palaeophis colossaeus","species","Reptilia","Tetrapodomorpha","Ophidia","Palaeophiidae","Palaeophis","colossaeus",221750008.13879,149378828.10098
"Henodus chelyops","species","Reptilia","Tetrapodomorpha","Placodontia","","Henodus","chelyops",250704.87287715,335487.49690518
"Psephoderma alpinum","species","Reptilia","Tetrapodomorpha","Placodontia","","Psephoderma","alpinum",1539728.9343788,1714807.2286627
"Cyamodus rostratus","species","Reptilia","Tetrapodomorpha","Placodontia","Cyamodontidae","Cyamodus","rostratus",563663.41460416,694927.60177947
"Placodus gigas","species","Reptilia","Tetrapodomorpha","Placodontia","Placodontidae","Placodus","gigas",2131784.9993738,2297315.3854685
"Cryptoclidus eurymerus","species","Reptilia","Tetrapodomorpha","Plesiosauria","Cryptoclididae","Cryptoclidus","eurymerus",154136202.56672,107723184.8053
"Muraenosaurus leedsii","species","Reptilia","Tetrapodomorpha","Plesiosauria","Cryptoclididae","Muraenosaurus","leedsii",63400668.405061,48476022.175154
"Callawayasaurus colombiensis","species","Reptilia","Tetrapodomorpha","Plesiosauria","Elasmosauridae","Callawayasaurus","colombiensis",154136202.56672,107723184.8053
"Cimoliasaurus magnus","species","Reptilia","Tetrapodomorpha","Plesiosauria","Elasmosauridae","Cimoliasaurus","magnus",131557359.5378,93428294.718773
"Elasmosaurus platyurus","species","Reptilia","Tetrapodomorpha","Plesiosauria","Elasmosauridae","Elasmosaurus","platyurus",867773032.28928,509201850.46016
"Fresnosaurus drescheri","species","Reptilia","Tetrapodomorpha","Plesiosauria","Elasmosauridae","Fresnosaurus","drescheri",221750008.13879,149378828.10098
"Hydrotherosaurus alexandrae","species","Reptilia","Tetrapodomorpha","Plesiosauria","Elasmosauridae","Hydrotherosaurus","alexandrae",690271348.45731,414531545.85504
"Mauisaurus haasti","species","Reptilia","Tetrapodomorpha","Plesiosauria","Elasmosauridae","Mauisaurus","haasti",2610618443.5834,1370372533.2197
"Polyptychodon interruptus","species","Reptilia","Tetrapodomorpha","Plesiosauria","Elasmosauridae","Polyptychodon","interruptus",102052940.52177,74361080.464155
"Thalassomedon hanningtoni","species","Reptilia","Tetrapodomorpha","Plesiosauria","Elasmosauridae","Thalassomedon","hanningtoni",539106369.59345,331948917.90787
"Tuarangisaurus keyesi","species","Reptilia","Tetrapodomorpha","Plesiosauria","Elasmosauridae","Tuarangisaurus","keyesi",154136202.56672,107723184.8053
"Woolungasaurus glendowerensis","species","Reptilia","Tetrapodomorpha","Plesiosauria","Elasmosauridae","Woolungasaurus","glendowerensis",262043425.75284,173565578.78691
"Leptocleidus capensis","species","Reptilia","Tetrapodomorpha","Plesiosauria","Leptocleididae","Leptocleidus","capensis",7456125.5086633,7079175.7380521
"Microcleidus homalospondylus","species","Reptilia","Tetrapodomorpha","Plesiosauria","Microcleididae","Microcleidus","homalospondylus",7456125.5086633,7079175.7380521
"Plesiosaurus dolichodeirus","species","Reptilia","Tetrapodomorpha","Plesiosauria","Plesiosauridae","Plesiosaurus","dolichodeirus",12001758.848929,10859289.460161
"Kronosaurus queenslandicus","species","Reptilia","Tetrapodomorpha","Plesiosauria","Pliosauridae","Kronosaurus","queenslandicus",307017248.56004,200121782.97571
"Liopleurodon ferox","species","Reptilia","Tetrapodomorpha","Plesiosauria","Pliosauridae","Liopleurodon","ferox",77010408.178216,57734982.666378
"Trinacromerum bentonianum","species","Reptilia","Tetrapodomorpha","Plesiosauria","Polycotylidae","Trinacromerum","bentonianum",7456125.5086633,7079175.7380521
"Macroplata tenuiceps","species","Reptilia","Tetrapodomorpha","Plesiosauria","Rhomaleosauridae","Macroplata","tenuiceps",26078524.624795,21814475.037787
"Yuzhoupliosaurus chengjiangensis","species","Reptilia","Tetrapodomorpha","Plesiosauria","Rhomaleosauridae","Yuzhoupliosaurus","chengjiangensis",18126920.435975,15731310.492927
"Carinodens fraasi","species","Reptilia","Tetrapodomorpha","Squamata","Mosasauridae","Carinodens","fraasi",12001758.848929,10859289.460161
"Globidens dakotensis","species","Reptilia","Tetrapodomorpha","Squamata","Mosasauridae","Globidens","dakotensis",63400668.405061,48476022.175154
"Halisaurus arambourgi","species","Reptilia","Tetrapodomorpha","Squamata","Mosasauridae","Halisaurus","arambourgi",18126920.435975,15731310.492927
"Platecarpus tympaniticus","species","Reptilia","Tetrapodomorpha","Squamata","Mosasauridae","Platecarpus","tympaniticus",22662789.562722,19228384.6997
"Plotosaurus bennisoni","species","Reptilia","Tetrapodomorpha","Squamata","Mosasauridae","Plotosaurus","bennisoni",307017248.56004,200121782.97571
"Tylosaurus proriger","species","Reptilia","Tetrapodomorpha","Squamata","Mosasauridae","Tylosaurus","proriger",1073822706.9149,616675132.92193
"Allopleuron hofmanni","species","Reptilia","Tetrapodomorpha","Testudines","Cheloniidae","Allopleuron","hofmanni",440224.75769714,556484.70602928
"Archelon ischyros","species","Reptilia","Tetrapodomorpha","Testudines","Protostegidae","Archelon","ischyros",18126920.435975,15731310.492927
"Protostega gigas","species","Reptilia","Tetrapodomorpha","Testudines","Protostegidae","Protostega","gigas",7456125.5086633,7079175.7380521
